Introducing nomisr
…
Dataset metadata concepts and types II

mort_geo_type <- nomis_get_metadata(id = "NM_161_1", 
                                    concept = "GEOGRAPHY",
                                    type = "TYPE464")

## # A tibble: 348 x 3
##    id         parentCode label.en            
##    <chr>      <chr>      <chr>               
##  1 1946157057 2013265921 Darlington          
##  2 1946157058 2013265921 County Durham       
##  3 1946157059 2013265921 Hartlepool          
##  4 1946157060 2013265921 Middlesbrough       
##  5 1946157061 2013265921 Northumberland      
##  6 1946157062 2013265921 Redcar and Cleveland
##  7 1946157063 2013265921 Stockton-on-Tees    
##  8 1946157064 2013265921 Gateshead           
##  9 1946157065 2013265921 Newcastle upon Tyne 
## 10 1946157066 2013265921 North Tyneside      
## # ... with 338 more rows

Dataset metadata concepts and types III

mort_cause <- nomis_get_metadata(id = "NM_161_1", 
                                 concept = "CAUSE_OF_DEATH")

## # A tibble: 10,332 x 3
##    id     parentCode label.en                                             
##    <chr>  <chr>      <chr>                                                
##  1 888888 <NA>       Full ICD-10 Classification                           
##  2 0      888888     A00-R99,U00-Y89 All causes, all ages                 
##  3 98     0          Aged under 28 days - cause unclassified              
##  4 99     0          All causes, aged 28 days and over                    
##  5 1      99         A00-B99 I Certain infectious and parasitic diseases  
##  6 100    1          A00-A09 Intestinal infectious diseases               
##  7 10100  100        A00 Cholera                                          
##  8 101000 10100      A00.0 Cholera due to Vibrio cholerae 01, biovar chol
##  9 101001 10100      A00.1 Cholera due to Vibrio cholerae 01, biovar eltor
## 10 101009 10100      A00.9 Cholera, unspecified                           
## # ... with 10,322 more rows
…
